finalC_ControlUnit/simulation/qsim/ControlUnit.msim.vcd
$comment
	File created using the following command:
		vcd file ControlUnit.msim.vcd -direction
$end
$date
	Fri Apr 13 11:54:23 2018
$end
$version
	ModelSim Version 10.1d
$end
$timescale
	1ps
$end
$scope module ControlUnit_vlg_vec_tst $end
$var reg 1 ! clock $end
$var reg 1 " reset $end
$var reg 1 # w $end
$var reg 1 $ x $end
$var reg 1 % y $end
$var reg 1 & z $end
$var wire 1 ' c0 $end
$var wire 1 ( c2 $end
$var wire 1 ) c3 $end
$var wire 1 * c4 $end
$var wire 1 + c7 $end
$var wire 1 , c8 $end
$var wire 1 - c9 $end
$var wire 1 . sampler $end
$scope module i1 $end
$var wire 1 / gnd $end
$var wire 1 0 vcc $end
$var wire 1 1 unknown $end
$var tri1 1 2 devclrn $end
$var tri1 1 3 devpor $end
$var tri1 1 4 devoe $end
$var wire 1 5 clock~combout $end
$var wire 1 6 y~combout $end
$var wire 1 7 z~combout $end
$var wire 1 8 w~combout $end
$var wire 1 9 inst|WideOr1~0_combout $end
$var wire 1 : inst|Decoder0~0_combout $end
$var wire 1 ; inst|CLR~combout $end
$var wire 1 < x~combout $end
$var wire 1 = inst|Decoder0~1_combout $end
$var wire 1 > inst|INC~combout $end
$var wire 1 ? inst2|Mux6~0_combout $end
$var wire 1 @ inst2|Mux8~0_combout $end
$var wire 1 A reset~combout $end
$var wire 1 B inst2|Mux9~0_combout $end
$var wire 1 C inst2|Mux6~1_combout $end
$var wire 1 D inst2|Mux6~1clkctrl_outclk $end
$var wire 1 E inst2|Mux7~0_combout $end
$var wire 1 F inst2|Mux5~0_combout $end
$var wire 1 G inst2|c0~combout $end
$var wire 1 H inst2|Mux4~0_combout $end
$var wire 1 I inst2|c2~combout $end
$var wire 1 J inst2|Mux3~0_combout $end
$var wire 1 K inst2|c3~combout $end
$var wire 1 L inst2|Mux2~0_combout $end
$var wire 1 M inst2|c4~combout $end
$var wire 1 N inst2|Mux1~0_combout $end
$var wire 1 O inst2|c8~combout $end
$var wire 1 P inst2|Mux2~1_combout $end
$var wire 1 Q inst2|c9~combout $end
$var wire 1 R inst2|state [2] $end
$var wire 1 S inst2|state [1] $end
$var wire 1 T inst2|state [0] $end
$var wire 1 U inst2|nextstate [2] $end
$var wire 1 V inst2|nextstate [1] $end
$var wire 1 W inst2|nextstate [0] $end
$upscope $end
$upscope $end
$enddefinitions $end
#0
$dumpvars
1!
0"
0#
1$
1%
0&
1'
0(
0)
0*
0+
0,
0-
x.
0/
10
x1
12
13
14
15
16
07
08
09
0:
0;
1<
1=
1>
1?
0@
0A
1B
1C
1D
1E
1F
1G
0H
0I
0J
0K
0L
0M
0N
0O
0P
0Q
0T
0S
0R
1W
0V
0U
$end
#50000
0!
05
0.
#100000
1!
15
1.
1T
1J
0F
0E
1@
1K
0G
0W
1V
1)
0'
#150000
0!
05
0.
#200000
1!
15
1.
0T
1S
0J
1E
1L
0K
1W
1M
0)
1*
#250000
0!
05
0.
#300000
1!
15
1.
1T
0E
0B
0@
0?
0W
1U
0V
#350000
0!
05
0.
#400000
1!
15
1.
0T
1R
0S
1H
1@
1?
0L
0C
0D
1C
1D
0M
1I
1V
0*
1+
1(
#450000
0!
05
0.
#500000
0$
0%
0<
06
1.
0=
0>
1E
0@
0?
1W
0V
0C
0D
